algorithm;function_id;runs;pred_exact;pred_above;pred_1under;pred_1under_error
J48;2;50;81.85714285714286;87.0;13.0;100.0
J48;2;100;83.42857142857143;90.14285714285715;9.857142857142858;100.0
J48;2;150;83.42857142857143;90.14285714285715;9.857142857142858;100.0
J48;2;200;83.42857142857143;90.14285714285715;9.857142857142858;100.0
J48;2;250;83.0;88.57142857142857;11.428571428571429;100.0
J48;2;300;83.0;88.57142857142857;11.428571428571429;100.0
J48;2;350;81.28571428571428;86.57142857142858;13.428571428571429;100.0
J48;2;400;81.28571428571428;86.57142857142858;13.428571428571429;100.0
J48;2;450;80.42857142857143;86.71428571428571;13.285714285714286;100.0
J48;2;500;81.71428571428572;87.0;13.0;100.0
J48;2;550;82.28571428571428;86.85714285714286;13.142857142857142;100.0
J48;2;600;83.0;87.71428571428571;12.285714285714286;100.0
J48;2;650;82.28571428571428;86.85714285714286;13.142857142857142;100.0
J48;2;700;82.28571428571428;86.85714285714286;13.142857142857142;100.0
J48;2;750;81.85714285714286;90.14285714285715;9.857142857142858;100.0
J48;2;800;82.85714285714286;90.14285714285715;9.857142857142858;100.0
J48;2;850;82.85714285714286;90.14285714285715;9.857142857142858;100.0
J48;2;900;82.85714285714286;90.14285714285715;9.857142857142858;100.0
J48;2;950;82.28571428571428;90.42857142857143;9.571428571428571;100.0
J48;2;1000;85.0;89.85714285714286;10.142857142857142;100.0
J48;3;50;77.57142857142857;90.71428571428571;9.285714285714286;100.0
J48;3;100;78.28571428571428;89.71428571428571;10.285714285714285;100.0
J48;3;150;79.0;89.71428571428571;10.285714285714285;100.0
J48;3;200;79.0;89.71428571428571;10.285714285714285;100.0
J48;3;250;80.42857142857143;87.85714285714286;12.142857142857142;100.0
J48;3;300;80.42857142857143;87.85714285714286;12.142857142857142;100.0
J48;3;350;80.42857142857143;87.85714285714286;12.142857142857142;100.0
J48;3;400;80.42857142857143;87.85714285714286;12.142857142857142;100.0
J48;3;450;80.42857142857143;87.85714285714286;12.142857142857142;100.0
J48;3;500;80.42857142857143;87.85714285714286;12.142857142857142;100.0
J48;3;550;81.14285714285714;87.42857142857143;12.571428571428573;100.0
J48;3;600;81.14285714285714;87.42857142857143;12.571428571428573;100.0
J48;3;650;82.14285714285714;87.42857142857143;12.571428571428573;100.0
J48;3;700;82.14285714285714;87.42857142857143;12.571428571428573;100.0
J48;3;750;82.14285714285714;87.42857142857143;12.571428571428573;100.0
J48;3;800;82.14285714285714;87.42857142857143;12.571428571428573;100.0
J48;3;850;83.0;86.71428571428571;13.285714285714286;100.0
J48;3;900;83.0;86.71428571428571;13.285714285714286;100.0
J48;3;950;83.0;86.71428571428571;13.285714285714286;100.0
J48;3;1000;83.0;86.71428571428571;13.285714285714286;100.0
J48;4;50;81.33140376266282;82.92329956584659;17.0767004341534;100.0
J48;4;100;84.5151953690304;93.63241678726484;6.367583212735166;100.0
J48;4;150;84.9493487698987;93.63241678726484;6.367583212735166;100.0
J48;4;200;84.9493487698987;93.63241678726484;6.367583212735166;100.0
J48;4;250;88.13314037626628;92.18523878437048;7.814761215629522;100.0
J48;4;300;88.5672937771346;91.4616497829233;8.5383502170767;100.0
J48;4;350;88.13314037626628;90.59334298118668;9.406657018813313;100.0
J48;4;400;88.42257597684515;90.30390738060781;9.696092619392186;100.0
J48;4;450;88.42257597684515;90.30390738060781;9.696092619392186;100.0
J48;4;500;88.42257597684515;90.30390738060781;9.696092619392186;100.0
J48;4;550;88.5672937771346;91.4616497829233;8.5383502170767;100.0
J48;4;600;88.5672937771346;91.31693198263386;8.683068017366136;100.0
J48;4;650;88.27785817655571;91.31693198263386;8.683068017366136;100.0
J48;4;700;88.71201157742402;91.75108538350217;8.24891461649783;100.0
J48;4;750;88.5672937771346;91.4616497829233;8.5383502170767;100.0
J48;4;800;89.4356005788712;92.04052098408104;7.959479015918958;100.0
J48;4;850;89.29088277858177;91.8958031837916;8.104196816208393;100.0
J48;4;900;88.85672937771346;91.8958031837916;8.104196816208393;100.0
J48;4;950;89.00144717800289;92.04052098408104;7.959479015918958;100.0
J48;4;1000;89.4356005788712;92.04052098408104;7.959479015918958;100.0
